…
    ## Rows: 822 Columns: 9
    ## ── Column specification ────────────────────────────────────────────────────────
    ## Delimiter: ","
    ## dbl  (8): prez_gop, gov_gop, sen_gop, rep_gop, prez_dem, gov_dem, sen_dem, r...
    ## date (1): mon
    ## 
    ## ℹ Use `spec()` to retrieve the full column specification for this data.
    ## ℹ Specify the column types or set `show_col_types = FALSE` to quiet this message.

``` r
pols
```

    ## # A tibble: 822 × 9
    ##     year month     gov_gop sen_gop rep_gop gov_dem sen_dem rep_dem president
    ##    <int> <chr>       <dbl>   <dbl>   <dbl>   <dbl>   <dbl>   <dbl> <chr>    
    ##  1  1947 January        23      51     253      23      45     198 dem      
    ##  2  1947 February       23      51     253      23      45     198 dem      
    ##  3  1947 March          23      51     253      23      45     198 dem      
    ##  4  1947 April          23      51     253      23      45     198 dem      
    ##  5  1947 May            23      51     253      23      45     198 dem      
    ##  6  1947 June           23      51     253      23      45     198 dem      
    ##  7  1947 July           23      51     253      23      45     198 dem      
    ##  8  1947 August         23      51     253      23      45     198 dem      
    ##  9  1947 September      23      51     253      23      45     198 dem      
    ## 10  1947 October        23      51     253      23      45     198 dem      
    ## # … with 812 more rows
…
    ## Rows: 787 Columns: 2
    ## ── Column specification ────────────────────────────────────────────────────────
    ## Delimiter: ","
    ## chr (1): date
    ## dbl (1): close
    ## 
    ## ℹ Use `spec()` to retrieve the full column specification for this data.
    ## ℹ Specify the column types or set `show_col_types = FALSE` to quiet this message.

``` r
snp
```

    ## # A tibble: 787 × 3
    ##     year month     close
    ##    <int> <chr>     <dbl>
    ##  1  1950 January    17.0
    ##  2  1950 February   17.2
    ##  3  1950 March      17.3
    ##  4  1950 April      18.0
    ##  5  1950 May        18.8
    ##  6  1950 June       17.7
    ##  7  1950 July       17.8
    ##  8  1950 August     18.4
    ##  9  1950 September  19.5
    ## 10  1950 October    19.5
    ## # … with 777 more rows
…
    ## Rows: 68 Columns: 13
    ## ── Column specification ────────────────────────────────────────────────────────
    ## Delimiter: ","
    ## dbl (13): Year, Jan, Feb, Mar, Apr, May, Jun, Jul, Aug, Sep, Oct, Nov, Dec
    ## 
    ## ℹ Use `spec()` to retrieve the full column specification for this data.
    ## ℹ Specify the column types or set `show_col_types = FALSE` to quiet this message.

``` r
unemployment 
```

    ## # A tibble: 816 × 3
    ##     Year month   unemployment
    ##    <dbl> <chr>          <dbl>
    ##  1  1948 January          3.4
    ##  2  1949 January          4.3
    ##  3  1950 January          6.5
    ##  4  1951 January          3.7
    ##  5  1952 January          3.2
    ##  6  1953 January          2.9
    ##  7  1954 January          4.9
    ##  8  1955 January          4.9
    ##  9  1956 January          4  
    ## 10  1957 January          4.2
    ## # … with 806 more rows
…
``` r
data = 
  left_join(pols, snp) %>%
  left_join(., unemployment)
```

    ## Joining, by = c("year", "month")
    ## Joining, by = "month"

``` r
data
```

    ## # A tibble: 55,896 × 12
    ##     year month   gov_gop sen_gop rep_gop gov_dem sen_dem rep_dem president close
    ##    <int> <chr>     <dbl>   <dbl>   <dbl>   <dbl>   <dbl>   <dbl> <chr>     <dbl>
    ##  1  1947 January      23      51     253      23      45     198 dem          NA
    ##  2  1947 January      23      51     253      23      45     198 dem          NA
    ##  3  1947 January      23      51     253      23      45     198 dem          NA
    ##  4  1947 January      23      51     253      23      45     198 dem          NA
    ##  5  1947 January      23      51     253      23      45     198 dem          NA
    ##  6  1947 January      23      51     253      23      45     198 dem          NA
    ##  7  1947 January      23      51     253      23      45     198 dem          NA
    ##  8  1947 January      23      51     253      23      45     198 dem          NA
    ##  9  1947 January      23      51     253      23      45     198 dem          NA
    ## 10  1947 January      23      51     253      23      45     198 dem          NA
    ## # … with 55,886 more rows, and 2 more variables: Year <dbl>, unemployment <dbl>
…
